﻿printername,ipaddress,driver,department,location
pr-a-laser001,10.11.14.1,HP LaserJet Pro M402-M403 n-dne PCL 6,PKA001,Zone A Bench001
pr-a-laser002,10.11.14.2,HP LaserJet Pro M402-M403 n-dne PCL 6,PKA002,Zone A Bench002
pr-a-laser003,10.11.14.3,HP LaserJet Pro M402-M403 n-dne PCL 6,PKA003,Zone A Bench003
pr-a-laser004,10.11.14.4,HP LaserJet Pro M402-M403 n-dne PCL 6,PKA004,Zone A Bench004
pr-a-laser005,10.11.14.5,HP LaserJet Pro M402-M403 n-dne PCL 6,PKA005,Zone A Bench005
pr-a-laser006,10.11.14.6,HP LaserJet Pro M402-M403 n-dne PCL 6,PKA006,Zone A Bench006
pr-a-laser007,10.11.14.7,HP LaserJet Pro M402-M403 n-dne PCL 6,PKA007,Zone A Bench007
pr-a-laser008,10.11.14.8,HP LaserJet Pro M402-M403 n-dne PCL 6,PKA008,Zone A Bench008
pr-a-laser009,10.11.14.9,HP LaserJet Pro M402-M403 n-dne PCL 6,PKA009,Zone A Bench009
pr-a-laser010,10.11.14.10,HP LaserJet Pro M402-M403 n-dne PCL 6,PKA010,Zone A Bench010
pr-a-laser011,10.11.14.11,HP LaserJet Pro M402-M403 n-dne PCL 6,PKA011,Zone A Bench011
pr-a-laser012,10.11.14.12,HP LaserJet Pro M402-M403 n-dne PCL 6,PKA012,Zone A Bench012
pr-a-laser013,10.11.14.13,HP LaserJet Pro M402-M403 n-dne PCL 6,PKA013,Zone A Bench013
pr-a-laser014,10.11.14.14,HP LaserJet Pro M402-M403 n-dne PCL 6,PKA014,Zone A Bench014
pr-a-laser015,10.11.14.15,HP LaserJet Pro M402-M403 n-dne PCL 6,PKA015,Zone A Bench015
pr-a-laser016,10.11.14.16,HP LaserJet Pro M402-M403 n-dne PCL 6,PKA016,Zone A Bench016
pr-a-laser017,10.11.14.17,HP LaserJet Pro M402-M403 n-dne PCL 6,PKA017,Zone A Bench017
pr-a-laser018,10.11.14.18,HP LaserJet Pro M402-M403 n-dne PCL 6,PKA018,Zone A Bench018
pr-a-laser019,10.11.14.19,HP LaserJet Pro M402-M403 n-dne PCL 6,PKA019,Zone A Bench019
pr-a-laser020,10.11.14.20,HP LaserJet Pro M402-M403 n-dne PCL 6,PKA020,Zone A Bench020
pr-a-laser021,10.11.14.21,HP LaserJet Pro M402-M403 n-dne PCL 6,PKA021,Zone A Bench021
pr-a-laser022,10.11.14.22,HP LaserJet Pro M402-M403 n-dne PCL 6,PKA022,Zone A Bench022
pr-a-laser023,10.11.14.23,HP LaserJet Pro M402-M403 n-dne PCL 6,PKA023,Zone A Bench023
pr-a-laser024,10.11.14.24,HP LaserJet Pro M402-M403 n-dne PCL 6,PKA024,Zone A Bench024
pr-a-laser025,10.11.14.25,HP LaserJet Pro M402-M403 n-dne PCL 6,PKA025,Zone A Bench025
pr-a-laser026,10.11.14.26,HP LaserJet Pro M402-M403 n-dne PCL 6,PKA026,Zone A Bench026
pr-a-laser027,10.11.14.27,HP LaserJet Pro M402-M403 n-dne PCL 6,PKA027,Zone A Bench027
pr-a-laser028,10.11.14.28,HP LaserJet Pro M402-M403 n-dne PCL 6,PKA028,Zone A Bench028
pr-a-laser029,10.11.14.29,HP LaserJet Pro M402-M403 n-dne PCL 6,PKA029,Zone A Bench029
pr-a-laser030,10.11.14.30,HP LaserJet Pro M402-M403 n-dne PCL 6,PKA030,Zone A Bench030
pr-a-laser031,10.11.14.31,HP LaserJet Pro M402-M403 n-dne PCL 6,PKA031,Zone A Bench031
pr-a-laser032,10.11.14.32,HP LaserJet Pro M402-M403 n-dne PCL 6,PKA032,Zone A Bench032
pr-a-laser033,10.11.14.33,HP LaserJet Pro M402-M403 n-dne PCL 6,PKA033,Zone A Bench033
pr-a-laser034,10.11.14.34,HP LaserJet Pro M402-M403 n-dne PCL 6,PKA034,Zone A Bench034
pr-a-laser035,10.11.14.35,HP LaserJet Pro M402-M403 n-dne PCL 6,PKA035,Zone A Bench035
pr-a-laser036,10.11.14.36,HP LaserJet Pro M402-M403 n-dne PCL 6,PKA036,Zone A Bench036
pr-a-laser037,10.11.14.37,HP LaserJet Pro M402-M403 n-dne PCL 6,PKA037,Zone A Bench037
pr-a-laser038,10.11.14.38,HP LaserJet Pro M402-M403 n-dne PCL 6,PKA038,Zone A Bench038
pr-a-laser039,10.11.14.39,HP LaserJet Pro M402-M403 n-dne PCL 6,PKA039,Zone A Bench039
pr-a-laser040,10.11.14.40,HP LaserJet Pro M402-M403 n-dne PCL 6,PKA040,Zone A Bench040
pr-a-laser041,10.11.14.41,HP LaserJet Pro M402-M403 n-dne PCL 6,PKA041,Zone A Bench041
pr-a-laser042,10.11.14.42,HP LaserJet Pro M402-M403 n-dne PCL 6,PKA042,Zone A Bench042
pr-a-laser043,10.11.14.43,HP LaserJet Pro M402-M403 n-dne PCL 6,PKA043,Zone A Bench043
pr-a-laser044,10.11.14.44,HP LaserJet Pro M402-M403 n-dne PCL 6,PKA044,Zone A Bench044
pr-a-laser045,10.11.14.45,HP LaserJet Pro M402-M403 n-dne PCL 6,PKA045,Zone A Bench045
pr-a-laser046,10.11.14.46,HP LaserJet Pro M402-M403 n-dne PCL 6,PKA046,Zone A Bench046
pr-a-laser047,10.11.14.47,HP LaserJet Pro M402-M403 n-dne PCL 6,PKA047,Zone A Bench047
pr-a-laser048,10.11.14.48,HP LaserJet Pro M402-M403 n-dne PCL 6,PKA048,Zone A Bench048
pr-a-laser049,10.11.14.49,HP LaserJet Pro M402-M403 n-dne PCL 6,PKA049,Zone A Bench049
pr-a-laser050,10.11.14.50,HP LaserJet Pro M402-M403 n-dne PCL 6,PKA050,Zone A Bench050
pr-a-laser051,10.11.14.51,HP LaserJet Pro M402-M403 n-dne PCL 6,PKA051,Zone A Bench051
pr-a-laser052,10.11.14.52,HP LaserJet Pro M402-M403 n-dne PCL 6,PKA052,Zone A Bench052
pr-a-laser053,10.11.14.53,HP LaserJet Pro M402-M403 n-dne PCL 6,PKA053,Zone A Bench053
pr-a-laser054,10.11.14.54,HP LaserJet Pro M402-M403 n-dne PCL 6,PKA054,Zone A Bench054
pr-a-laser055,10.11.14.55,HP LaserJet Pro M402-M403 n-dne PCL 6,PKA055,Zone A Bench055
pr-a-laser056,10.11.14.56,HP LaserJet Pro M402-M403 n-dne PCL 6,PKA056,Zone A Bench056
pr-a-laser057,10.11.14.57,HP LaserJet Pro M402-M403 n-dne PCL 6,PKA057,Zone A Bench057
pr-a-laser058,10.11.14.58,HP LaserJet Pro M402-M403 n-dne PCL 6,PKA058,Zone A Bench058
pr-a-laser059,10.11.14.59,HP LaserJet Pro M402-M403 n-dne PCL 6,PKA059,Zone A Bench059
pr-a-laser060,10.11.14.60,HP LaserJet Pro M402-M403 n-dne PCL 6,PKA060,Zone A Bench060
pr-a-laser061,10.11.14.61,HP LaserJet Pro M402-M403 n-dne PCL 6,PKA061,Zone A Bench061
pr-a-laser062,10.11.14.62,HP LaserJet Pro M402-M403 n-dne PCL 6,PKA062,Zone A Bench062
pr-a-laser063,10.11.14.63,HP LaserJet Pro M402-M403 n-dne PCL 6,PKA063,Zone A Bench063
pr-a-laser064,10.11.14.64,HP LaserJet Pro M402-M403 n-dne PCL 6,PKA064,Zone A Bench064
pr-a-laser065,10.11.14.65,HP LaserJet Pro M402-M403 n-dne PCL 6,PKA065,Zone A Bench065
pr-a-laser066,10.11.14.66,HP LaserJet Pro M402-M403 n-dne PCL 6,PKA066,Zone A Bench066
pr-a-laser067,10.11.14.67,HP LaserJet Pro M402-M403 n-dne PCL 6,PKA067,Zone A Bench067
pr-a-laser068,10.11.14.68,HP LaserJet Pro M402-M403 n-dne PCL 6,PKA068,Zone A Bench068
pr-a-laser069,10.11.14.69,HP LaserJet Pro M402-M403 n-dne PCL 6,PKA069,Zone A Bench069
pr-a-laser070,10.11.14.70,HP LaserJet Pro M402-M403 n-dne PCL 6,PKA070,Zone A Bench070
pr-a-laser071,10.11.14.71,HP LaserJet Pro M402-M403 n-dne PCL 6,PKA071,Zone A Bench071
pr-a-laser072,10.11.14.72,HP LaserJet Pro M402-M403 n-dne PCL 6,PKA072,Zone A Bench072
pr-a-laser073,10.11.14.73,HP LaserJet Pro M402-M403 n-dne PCL 6,PKA073,Zone A Bench073
pr-a-laser074,10.11.14.74,HP LaserJet Pro M402-M403 n-dne PCL 6,PKA074,Zone A Bench074
pr-a-laser075,10.11.14.75,HP LaserJet Pro M402-M403 n-dne PCL 6,PKA075,Zone A Bench075
pr-a-laser076,10.11.14.76,HP LaserJet Pro M402-M403 n-dne PCL 6,PKA076,Zone A Bench076
pr-a-laser077,10.11.14.77,HP LaserJet Pro M402-M403 n-dne PCL 6,PKA077,Zone A Bench077
pr-a-laser078,10.11.14.78,HP LaserJet Pro M402-M403 n-dne PCL 6,PKA078,Zone A Bench078
pr-a-laser079,10.11.14.79,HP LaserJet Pro M402-M403 n-dne PCL 6,PKA079,Zone A Bench079
pr-a-laser080,10.11.14.80,HP LaserJet Pro M402-M403 n-dne PCL 6,PKA080,Zone A Bench080
pr-a-laser081,10.11.14.81,HP LaserJet Pro M402-M403 n-dne PCL 6,PKA081,Zone A Bench081
pr-a-laser082,10.11.14.82,HP LaserJet Pro M402-M403 n-dne PCL 6,PKA082,Zone A Bench082
pr-a-laser083,10.11.14.83,HP LaserJet Pro M402-M403 n-dne PCL 6,PKA083,Zone A Bench083
pr-a-laser084,10.11.14.84,HP LaserJet Pro M402-M403 n-dne PCL 6,PKA084,Zone A Bench084
pr-a-laser085,10.11.14.85,HP LaserJet Pro M402-M403 n-dne PCL 6,PKA085,Zone A Bench085
pr-a-laser086,10.11.14.86,HP LaserJet Pro M402-M403 n-dne PCL 6,PKA086,Zone A Bench086
pr-a-laser087,10.11.14.87,HP LaserJet Pro M402-M403 n-dne PCL 6,PKA087,Zone A Bench087
pr-a-laser088,10.11.14.88,HP LaserJet Pro M402-M403 n-dne PCL 6,PKA088,Zone A Bench088
pr-a-laser089,10.11.14.89,HP LaserJet Pro M402-M403 n-dne PCL 6,PKA089,Zone A Bench089
pr-a-laser090,10.11.14.90,HP LaserJet Pro M402-M403 n-dne PCL 6,PKA090,Zone A Bench090
pr-a-laser091,10.11.14.91,HP LaserJet Pro M402-M403 n-dne PCL 6,PKA091,Zone A Bench091
pr-a-laser092,10.11.14.92,HP LaserJet Pro M402-M403 n-dne PCL 6,PKA092,Zone A Bench092
pr-a-laser093,10.11.14.93,HP LaserJet Pro M402-M403 n-dne PCL 6,PKA093,Zone A Bench093
pr-a-laser094,10.11.14.94,HP LaserJet Pro M402-M403 n-dne PCL 6,PKA094,Zone A Bench094
pr-a-laser095,10.11.14.95,HP LaserJet Pro M402-M403 n-dne PCL 6,PKA095,Zone A Bench095
pr-a-laser096,10.11.14.96,HP LaserJet Pro M402-M403 n-dne PCL 6,PKA096,Zone A Bench096
pr-a-laser097,10.11.14.97,HP LaserJet Pro M402-M403 n-dne PCL 6,PKA097,Zone A Bench097
pr-a-laser098,10.11.14.98,HP LaserJet Pro M402-M403 n-dne PCL 6,PKA098,Zone A Bench098
pr-a-laser099,10.11.14.99,HP LaserJet Pro M402-M403 n-dne PCL 6,PKA099,Zone A Bench099
pr-a-laser100,10.11.14.100,HP LaserJet Pro M402-M403 n-dne PCL 6,PKA100,Zone A Bench100
pr-a-laser101,10.11.14.101,HP LaserJet Pro M402-M403 n-dne PCL 6,PKA101,Zone A Bench101
pr-a-laser102,10.11.14.102,HP LaserJet Pro M402-M403 n-dne PCL 6,PKA102,Zone A Bench102
pr-a-laser103,10.11.14.103,HP LaserJet Pro M402-M403 n-dne PCL 6,PKA103,Zone A Bench103
pr-a-laser104,10.11.14.104,HP LaserJet Pro M402-M403 n-dne PCL 6,PKA104,Zone A Bench104
pr-a-laser105,10.11.14.105,HP LaserJet Pro M402-M403 n-dne PCL 6,PKA105,Zone A Bench105
pr-a-laser106,10.11.14.106,HP LaserJet Pro M402-M403 n-dne PCL 6,PKA106,Zone A Bench106
pr-a-laser107,10.11.14.107,HP LaserJet Pro M402-M403 n-dne PCL 6,PKA107,Zone A Bench107
pr-a-laser108,10.11.14.108,HP LaserJet Pro M402-M403 n-dne PCL 6,PKA108,Zone A Bench108
pr-a-laser109,10.11.14.109,HP LaserJet Pro M402-M403 n-dne PCL 6,PKA109,Zone A Bench109
pr-a-laser110,10.11.14.110,HP LaserJet Pro M402-M403 n-dne PCL 6,PKA110,Zone A Bench110
pr-a-laser111,10.11.14.111,HP LaserJet Pro M402-M403 n-dne PCL 6,PKA111,Zone A Bench111
pr-a-laser112,10.11.14.112,HP LaserJet Pro M402-M403 n-dne PCL 6,PKA112,Zone A Bench112
pr-a-laser113,10.11.14.113,HP LaserJet Pro M402-M403 n-dne PCL 6,PKA113,Zone A Bench113
pr-a-laser114,10.11.14.114,HP LaserJet Pro M402-M403 n-dne PCL 6,PKA114,Zone A Bench114
pr-a-laser115,10.11.14.115,HP LaserJet Pro M402-M403 n-dne PCL 6,PKA115,Zone A Bench115
pr-a-laser116,10.11.14.116,HP LaserJet Pro M402-M403 n-dne PCL 6,PKA116,Zone A Bench116
pr-a-laser117,10.11.14.117,HP LaserJet Pro M402-M403 n-dne PCL 6,PKA117,Zone A Bench117
pr-a-laser118,10.11.14.118,HP LaserJet Pro M402-M403 n-dne PCL 6,PKA118,Zone A Bench118
pr-a-laser119,10.11.14.119,HP LaserJet Pro M402-M403 n-dne PCL 6,PKA119,Zone A Bench119
pr-a-laser120,10.11.14.120,HP LaserJet Pro M402-M403 n-dne PCL 6,PKA120,Zone A Bench120
pr-a-laser121,10.11.14.121,HP LaserJet Pro M402-M403 n-dne PCL 6,PKA121,Zone A Bench121
pr-a-laser122,10.11.14.122,HP LaserJet Pro M402-M403 n-dne PCL 6,PKA122,Zone A Bench122
pr-a-laser123,10.11.14.123,HP LaserJet Pro M402-M403 n-dne PCL 6,PKA123,Zone A Bench123
pr-a-laser124,10.11.14.124,HP LaserJet Pro M402-M403 n-dne PCL 6,PKA124,Zone A Bench124
pr-a-laser125,10.11.14.125,HP LaserJet Pro M402-M403 n-dne PCL 6,PKA125,Zone A Bench125
pr-a-laser126,10.11.14.126,HP LaserJet Pro M402-M403 n-dne PCL 6,PKA126,Zone A Bench126
pr-a-laser127,10.11.14.127,HP LaserJet Pro M402-M403 n-dne PCL 6,PKA127,Zone A Bench127
pr-a-laser128,10.11.14.128,HP LaserJet Pro M402-M403 n-dne PCL 6,PKA128,Zone A Bench128
pr-a-laser129,10.11.14.129,HP LaserJet Pro M402-M403 n-dne PCL 6,PKA129,Zone A Bench129
pr-a-laser130,10.11.14.130,HP LaserJet Pro M402-M403 n-dne PCL 6,PKA130,Zone A Bench130
pr-a-laser131,10.11.14.131,HP LaserJet Pro M402-M403 n-dne PCL 6,PKA131,Zone A Bench131
pr-a-laser132,10.11.14.132,HP LaserJet Pro M402-M403 n-dne PCL 6,PKA132,Zone A Bench132
pr-a-laser133,10.11.14.133,HP LaserJet Pro M402-M403 n-dne PCL 6,PKA133,Zone A Bench133
pr-a-laser134,10.11.14.134,HP LaserJet Pro M402-M403 n-dne PCL 6,PKA134,Zone A Bench134
pr-a-laser135,10.11.14.135,HP LaserJet Pro M402-M403 n-dne PCL 6,PKA135,Zone A Bench135
pr-a-laser136,10.11.14.136,HP LaserJet Pro M402-M403 n-dne PCL 6,PKA136,Zone A Bench136
pr-a-laser137,10.11.14.137,HP LaserJet Pro M402-M403 n-dne PCL 6,PKA137,Zone A Bench137
pr-a-laser138,10.11.14.138,HP LaserJet Pro M402-M403 n-dne PCL 6,PKA138,Zone A Bench138
pr-a-laser139,10.11.14.139,HP LaserJet Pro M402-M403 n-dne PCL 6,PKA139,Zone A Bench139
pr-a-laser140,10.11.14.140,HP LaserJet Pro M402-M403 n-dne PCL 6,PKA140,Zone A Bench140
pr-a-laser141,10.11.14.141,HP LaserJet Pro M402-M403 n-dne PCL 6,PKA141,Zone A Bench141
pr-a-laser142,10.11.14.142,HP LaserJet Pro M402-M403 n-dne PCL 6,PKA142,Zone A Bench142
pr-a-laser143,10.11.14.143,HP LaserJet Pro M402-M403 n-dne PCL 6,PKA143,Zone A Bench143
pr-a-laser144,10.11.14.144,HP LaserJet Pro M402-M403 n-dne PCL 6,PKA144,Zone A Bench144
pr-a-laser145,10.11.14.145,HP LaserJet Pro M402-M403 n-dne PCL 6,PKA145,Zone A Bench145
pr-a-laser146,10.11.14.146,HP LaserJet Pro M402-M403 n-dne PCL 6,PKA146,Zone A Bench146
pr-a-laser147,10.11.14.147,HP LaserJet Pro M402-M403 n-dne PCL 6,PKA147,Zone A Bench147
pr-a-laser148,10.11.14.148,HP LaserJet Pro M402-M403 n-dne PCL 6,PKA148,Zone A Bench148
pr-a-laser149,10.11.14.149,HP LaserJet Pro M402-M403 n-dne PCL 6,PKA149,Zone A Bench149
pr-a-laser150,10.11.14.150,HP LaserJet Pro M402-M403 n-dne PCL 6,PKA150,Zone A Bench150
pr-a-laser151,10.11.14.151,HP LaserJet Pro M402-M403 n-dne PCL 6,PKA151,Zone A Bench151
pr-a-laser152,10.11.14.152,HP LaserJet Pro M402-M403 n-dne PCL 6,PKA152,Zone A Bench152
pr-a-laser153,10.11.14.153,HP LaserJet Pro M402-M403 n-dne PCL 6,PKA153,Zone A Bench153
pr-a-laser154,10.11.14.154,HP LaserJet Pro M402-M403 n-dne PCL 6,PKA154,Zone A Bench154
pr-a-laser155,10.11.14.155,HP LaserJet Pro M402-M403 n-dne PCL 6,PKA155,Zone A Bench155
pr-a-laser156,10.11.14.156,HP LaserJet Pro M402-M403 n-dne PCL 6,PKA156,Zone A Bench156
pr-a-laser157,10.11.14.157,HP LaserJet Pro M402-M403 n-dne PCL 6,PKA157,Zone A Bench157
pr-a-laser158,10.11.14.158,HP LaserJet Pro M402-M403 n-dne PCL 6,PKA158,Zone A Bench158
pr-a-laser159,10.11.14.159,HP LaserJet Pro M402-M403 n-dne PCL 6,PKA159,Zone A Bench159
pr-a-laser160,10.11.14.160,HP LaserJet Pro M402-M403 n-dne PCL 6,PKA160,Zone A Bench160
pr-a-laser161,10.11.14.161,HP LaserJet Pro M402-M403 n-dne PCL 6,PKA161,Zone A Bench161
pr-a-laser162,10.11.14.162,HP LaserJet Pro M402-M403 n-dne PCL 6,PKA162,Zone A Bench162
pr-a-laser163,10.11.14.163,HP LaserJet Pro M402-M403 n-dne PCL 6,PKA163,Zone A Bench163
pr-a-laser164,10.11.14.164,HP LaserJet Pro M402-M403 n-dne PCL 6,PKA164,Zone A Bench164
pr-a-laser165,10.11.14.165,HP LaserJet Pro M402-M403 n-dne PCL 6,PKA165,Zone A Bench165
pr-a-laser166,10.11.14.166,HP LaserJet Pro M402-M403 n-dne PCL 6,PKA166,Zone A Bench166
pr-a-laser167,10.11.14.167,HP LaserJet Pro M402-M403 n-dne PCL 6,PKA167,Zone A Bench167
pr-a-laser168,10.11.14.168,HP LaserJet Pro M402-M403 n-dne PCL 6,PKA168,Zone A Bench168
pr-a-laser169,10.11.14.169,HP LaserJet Pro M402-M403 n-dne PCL 6,PKA169,Zone A Bench169
pr-a-laser170,10.11.14.170,HP LaserJet Pro M402-M403 n-dne PCL 6,PKA170,Zone A Bench170
pr-a-laser171,10.11.14.171,HP LaserJet Pro M402-M403 n-dne PCL 6,PKA171,Zone A Bench171
pr-a-laser172,10.11.14.172,HP LaserJet Pro M402-M403 n-dne PCL 6,PKA172,Zone A Bench172
pr-a-laser173,10.11.14.173,HP LaserJet Pro M402-M403 n-dne PCL 6,PKA173,Zone A Bench173
pr-a-laser174,10.11.14.174,HP LaserJet Pro M402-M403 n-dne PCL 6,PKA174,Zone A Bench174
pr-a-laser175,10.11.14.175,HP LaserJet Pro M402-M403 n-dne PCL 6,PKA175,Zone A Bench175
pr-a-laser176,10.11.14.176,HP LaserJet Pro M402-M403 n-dne PCL 6,PKA176,Zone A Bench176
pr-a-laser177,10.11.14.177,HP LaserJet Pro M402-M403 n-dne PCL 6,PKA177,Zone A Bench177
pr-a-laser178,10.11.14.178,HP LaserJet Pro M402-M403 n-dne PCL 6,PKA178,Zone A Bench178
pr-a-laser179,10.11.14.179,HP LaserJet Pro M402-M403 n-dne PCL 6,PKA179,Zone A Bench179
pr-a-laser180,10.11.14.180,HP LaserJet Pro M402-M403 n-dne PCL 6,PKA180,Zone A Bench180
pr-a-laser181,10.11.14.181,HP LaserJet Pro M402-M403 n-dne PCL 6,PKA181,Zone A Bench181
pr-a-laser182,10.11.14.182,HP LaserJet Pro M402-M403 n-dne PCL 6,PKA182,Zone A Bench182
pr-a-laser183,10.11.14.183,HP LaserJet Pro M402-M403 n-dne PCL 6,PKA183,Zone A Bench183
pr-a-laser184,10.11.14.184,HP LaserJet Pro M402-M403 n-dne PCL 6,PKA184,Zone A Bench184
pr-a-laser185,10.11.14.185,HP LaserJet Pro M402-M403 n-dne PCL 6,PKA185,Zone A Bench185
pr-a-laser186,10.11.14.186,HP LaserJet Pro M402-M403 n-dne PCL 6,PKA186,Zone A Bench186
pr-a-laser187,10.11.14.187,HP LaserJet Pro M402-M403 n-dne PCL 6,PKA187,Zone A Bench187
pr-a-laser188,10.11.14.188,HP LaserJet Pro M402-M403 n-dne PCL 6,PKA188,Zone A Bench188
pr-a-laser189,10.11.14.189,HP LaserJet Pro M402-M403 n-dne PCL 6,PKA189,Zone A Bench189
pr-a-laser190,10.11.14.190,HP LaserJet Pro M402-M403 n-dne PCL 6,PKA190,Zone A Bench190
pr-a-laser191,10.11.14.191,HP LaserJet Pro M402-M403 n-dne PCL 6,PKA191,Zone A Bench191
pr-a-laser192,10.11.14.192,HP LaserJet Pro M402-M403 n-dne PCL 6,PKA192,Zone A Bench192
pr-a-laser193,10.11.14.193,HP LaserJet Pro M402-M403 n-dne PCL 6,PKA193,Zone A Bench193
pr-a-laser194,10.11.14.194,HP LaserJet Pro M402-M403 n-dne PCL 6,PKA194,Zone A Bench194
pr-a-laser195,10.11.14.195,HP LaserJet Pro M402-M403 n-dne PCL 6,PKA195,Zone A Bench195
pr-a-laser196,10.11.14.196,HP LaserJet Pro M402-M403 n-dne PCL 6,PKA196,Zone A Bench196
pr-a-laser197,10.11.14.197,HP LaserJet Pro M402-M403 n-dne PCL 6,PKA197,Zone A Bench197
pr-a-laser198,10.11.14.198,HP LaserJet Pro M402-M403 n-dne PCL 6,PKA198,Zone A Bench198
pr-a-laser199,10.11.14.199,HP LaserJet Pro M402-M403 n-dne PCL 6,PKA199,Zone A Bench199
pr-a-laser200,10.11.14.200,HP LaserJet Pro M402-M403 n-dne PCL 6,PKA200,Zone A Bench200